module gitlab.com/mrponpon/eshop

go 1.19

require github.com/joho/godotenv v1.5.1

require (
	cloud.google.com/go v0.110.2 // indirect
	cloud.google.com/go/compute v1.19.3 // indirect
	cloud.google.com/go/compute/metadata v0.2.3 // indirect
	cloud.google.com/go/iam v1.1.0 // indirect
	cloud.google.com/go/storage v1.31.0 // indirect
	github.com/andybalholm/brotli v1.0.5 // indirect
	github.com/gofiber/fiber/v2 v2.47.0 // indirect
	github.com/golang-jwt/jwt/v5 v5.0.0 // indirect
	github.com/golang/groupcache v0.0.0-20210331224755-41bb18bfe9da // indirect
	github.com/golang/protobuf v1.5.3 // indirect
	github.com/google/go-cmp v0.5.9 // indirect
	github.com/google/s2a-go v0.1.4 // indirect
	github.com/google/uuid v1.3.0 // indirect
	github.com/googleapis/enterprise-certificate-proxy v0.2.3 // indirect
	github.com/googleapis/gax-go/v2 v2.11.0 // indirect
	github.com/jackc/pgpassfile v1.0.0 // indirect
	github.com/jackc/pgservicefile v0.0.0-20221227161230-091c0ba34f0a // indirect
	github.com/jackc/pgx/v5 v5.4.1 // indirect
	github.com/jmoiron/sqlx v1.3.5 // indirect
	github.com/klauspost/compress v1.16.6 // indirect
	github.com/mattn/go-colorable v0.1.13 // indirect
	github.com/mattn/go-isatty v0.0.19 // indirect
	github.com/mattn/go-runewidth v0.0.14 // indirect
	github.com/philhofer/fwd v1.1.2 // indirect
	github.com/rivo/uniseg v0.4.4 // indirect
	github.com/satori/go.uuid v1.2.0 // indirect
	github.com/savsgio/dictpool v0.0.0-20221023140959-7bf2e61cea94 // indirect
	github.com/savsgio/gotils v0.0.0-20230208104028-c358bd845dee // indirect
	github.com/tinylib/msgp v1.1.8 // indirect
	github.com/valyala/bytebufferpool v1.0.0 // indirect
	github.com/valyala/fasthttp v1.48.0 // indirect
	github.com/valyala/tcplisten v1.0.0 // indirect
	go.opencensus.io v0.24.0 // indirect
	golang.org/x/crypto v0.9.0 // indirect
	golang.org/x/net v0.10.0 // indirect
	golang.org/x/oauth2 v0.8.0 // indirect
	golang.org/x/sys v0.9.0 // indirect
	golang.org/x/text v0.9.0 // indirect
	golang.org/x/xerrors v0.0.0-20220907171357-04be3eba64a2 // indirect
	google.golang.org/api v0.126.0 // indirect
	google.golang.org/appengine v1.6.7 // indirect
	google.golang.org/genproto v0.0.0-20230530153820-e85fd2cbaebc // indirect
	google.golang.org/genproto/googleapis/api v0.0.0-20230530153820-e85fd2cbaebc // indirect
	google.golang.org/genproto/googleapis/rpc v0.0.0-20230530153820-e85fd2cbaebc // indirect
	google.golang.org/grpc v1.55.0 // indirect
	google.golang.org/protobuf v1.30.0 // indirect
)
